…
Respuesta: El cliente a17a7558 es el más rentable porque representa la
mayor cantidad de ventas, 19817.7

## B

``` r
# Promedio de ventas por territorio
promedio_ventas_por_territorio <- data_parcial %>%
  group_by(Territorio) %>%
  summarise(Promedio_Venta = mean(Venta, na.rm = TRUE))

print(promedio_ventas_por_territorio)
```

    ## # A tibble: 104 × 2
    ##    Territorio Promedio_Venta
    ##    <chr>               <dbl>
    ##  1 002da6aa            48.3 
    ##  2 0320288f             7.98
    ##  3 0bbe6418            15.8 
    ##  4 0bfe69a0             5.82
    ##  5 0c169a3b            35.8 
    ##  6 0dd30fcd            21.5 
    ##  7 0ef0ce97            21.1 
    ##  8 0f915ffc             7.82
    ##  9 11676773            17.4 
    ## 10 13b223c9             8.32
    ## # ℹ 94 more rows
…
# Territorios con pérdidas considerables 
# Suponemos que las pérdidas serán aquellas menoras a 10,000. 
# Se supone está cantidad, ya que para la empresa no sería rentable seguir operando en territorios que generen menos que esa cantidad mínima. 
minimo_perdida <- 10000
territorios_con_perdidas <- ventas_por_territorio %>%
  filter(Venta_Total < minimo_perdida)

print(territorios_con_perdidas)
```

    ## # A tibble: 47 × 2
    ##    Territorio Venta_Total
    ##    <chr>            <dbl>
    ##  1 0320288f         845. 
    ##  2 0bbe6418        8892. 
    ##  3 0bfe69a0         384. 
    ##  4 0f915ffc        3260. 
    ##  5 13b223c9          49.9
    ##  6 1a9b2b4c        6437. 
    ##  7 1e107bf6        2311. 
    ##  8 1fac8d59        1182. 
    ##  9 3153c73e        9574. 
    ## 10 368301e2         121. 
    ## # ℹ 37 more rows
…
